module gitlab.com/aryanicosa/golang-gin-gitlab

go 1.16

require (
	github.com/gin-gonic/gin v1.7.4 // indirect
	github.com/go-playground/validator/v10 v10.4.1 // indirect
	github.com/stretchr/testify v1.7.0 // indirect
	github.com/tpkeeper/gin-dump v1.0.1 // indirect
	gopkg.in/go-playground/validator.v8 v8.18.2 // indirect
)
